{
  "test-client-reports": {
    "Python": "https://gitlab.com/SiLA2/sila_python/-/jobs/artifacts/master/raw/server-test-report.xml?job=compatibility-server-test",
    "Example 1": "https://gitlab.com/NMertsch/sila2-interop-test-reports/-/raw/main/py1-server-report.xml",
    "Example 2": "https://gitlab.com/NMertsch/sila2-interop-test-reports/-/raw/main/py2-server-report.xml"
  },
  "test-server-reports": {
    "Python": "https://gitlab.com/SiLA2/sila_python/-/jobs/artifacts/master/raw/client-test-report.xml?job=compatibility-client-test",
    "Example 1": "https://gitlab.com/NMertsch/sila2-interop-test-reports/-/raw/main/py1-client-report.xml",
    "Example 2": "https://gitlab.com/NMertsch/sila2-interop-test-reports/-/raw/main/py2-client-report.xml"
  }
}
